Apêndice A Apendice A - Estudo de caso sobre a arrumação de dados com tidyr | R para Data Science
…
Apêndice A Apendice A - Estudo de caso sobre a arrumação de dados com tidyr

Introdução

Neste apêndice, reproduzimos o estudo de caso conduzido pelos autores para exemplificar o uso do tidyr na arrumação de dados no capítulo 9 do livro.

Para este estudo de caso, foi utilizado o conjunto de dados tidyr::who, que contém casos de tuberculose (TB) separados por ano, país, gênero e método e diagnose. Os dados são oriundos do 2014 World Health Organization Global Tuberculosis Report disponível em: http://www.who.int/tb/country/data/download/en/.

Estudo de caso

Como dito na introdução, o conjunto de dados contém informações sobre os casos de tuberculose no mundo. As informações epidemiológicas contidas nesta base dados são riquíssimas, porém é desafiador trabalhar com os dados na forma em que são fornecidos:

who

## # A tibble: 7,240 × 60
##    country   iso2  iso3   year
##    <chr>     <chr> <chr> <dbl>
##  1 Afghanis… AF    AFG    1980
##  2 Afghanis… AF    AFG    1981
##  3 Afghanis… AF    AFG    1982
##  4 Afghanis… AF    AFG    1983
##  5 Afghanis… AF    AFG    1984
##  6 Afghanis… AF    AFG    1985
##  7 Afghanis… AF    AFG    1986
##  8 Afghanis… AF    AFG    1987
##  9 Afghanis… AF    AFG    1988
## 10 Afghanis… AF    AFG    1989
## # ℹ 7,230 more rows
## # ℹ 56 more variables:
## #   new_sp_m014 <dbl>,
## #   new_sp_m1524 <dbl>,
## #   new_sp_m2534 <dbl>,
## #   new_sp_m3544 <dbl>, …
…
year também é claramente uma variável.

Nós ainda não sabemos o que são todas as outras colunas, mas dada a estrutura dos comes das variáveis, provavelmente são valores, não variáveis.

Então precisamos reunir todas as colunas de new_sp_m014 até newrel_f65. Não sabemos, contudo, o que esses valores representam, então lhe daremos o nome genérico de “key”. Nós sabemos que as células representam a contagem de casos, então usaremos a variável cases. Há vários valores faltantes na representação atual, então, por enquanto, usaremos na.rm só para podermos focar nos valores que são apresentados.

(who1 <- who %>%
  gather(
    new_sp_m014:newrel_f65,
    key = "key",
    value = "cases",
    na.rm = TRUE
  ))

## # A tibble: 76,046 × 6
##    country   iso2  iso3   year
##    <chr>     <chr> <chr> <dbl>
##  1 Afghanis… AF    AFG    1997
##  2 Afghanis… AF    AFG    1998
##  3 Afghanis… AF    AFG    1999
##  4 Afghanis… AF    AFG    2000
##  5 Afghanis… AF    AFG    2001
##  6 Afghanis… AF    AFG    2002
##  7 Afghanis… AF    AFG    2003
##  8 Afghanis… AF    AFG    2004
##  9 Afghanis… AF    AFG    2005
## 10 Afghanis… AF    AFG    2006
## # ℹ 76,036 more rows
## # ℹ 2 more variables:
## #   key <chr>, cases <dbl>

Podemos conseguir algumas dicas da estrutura dos valores na nova coluna key ao contá-los:

who1 %>%
  count(key)

## # A tibble: 56 × 2
##    key              n
##    <chr>        <int>
##  1 new_ep_f014   1032
##  2 new_ep_f1524  1021
##  3 new_ep_f2534  1021
##  4 new_ep_f3544  1021
##  5 new_ep_f4554  1017
##  6 new_ep_f5564  1017
##  7 new_ep_f65    1014
##  8 new_ep_m014   1038
##  9 new_ep_m1524  1026
## 10 new_ep_m2534  1020
## # ℹ 46 more rows
…
3544 = 35 a 44 anos

4554 = 45 a 54 anos

5564 = 55 a 64 anos

65 = 65 ou mais

Precisamos fazer uma pequena correção no formato dos nomes e colunas: infelismente os nomes são levemente inconsistentes porque, em vez de new_rel, temos newrel (é difícil identificar isso aqui, mas se você não fizer a correção, teremos erros nos passos subsequentes).

(who2 <- who1 %>%
  mutate(key = stringr::str_replace(key, "newrel", "new_rel")))

## # A tibble: 76,046 × 6
##    country   iso2  iso3   year
##    <chr>     <chr> <chr> <dbl>
##  1 Afghanis… AF    AFG    1997
##  2 Afghanis… AF    AFG    1998
##  3 Afghanis… AF    AFG    1999
##  4 Afghanis… AF    AFG    2000
##  5 Afghanis… AF    AFG    2001
##  6 Afghanis… AF    AFG    2002
##  7 Afghanis… AF    AFG    2003
##  8 Afghanis… AF    AFG    2004
##  9 Afghanis… AF    AFG    2005
## 10 Afghanis… AF    AFG    2006
## # ℹ 76,036 more rows
## # ℹ 2 more variables:
## #   key <chr>, cases <dbl>

Podemos agora separar os valores em cada código com duas passagens de separate(). A primeira passagem separará os códigos em cada underscore:

(who3 <- who2 %>%
   separate(key, c("new", "type", "sexage"), sep = "_"))

## # A tibble: 76,046 × 8
##    country   iso2  iso3   year
##    <chr>     <chr> <chr> <dbl>
##  1 Afghanis… AF    AFG    1997
##  2 Afghanis… AF    AFG    1998
##  3 Afghanis… AF    AFG    1999
##  4 Afghanis… AF    AFG    2000
##  5 Afghanis… AF    AFG    2001
##  6 Afghanis… AF    AFG    2002
##  7 Afghanis… AF    AFG    2003
##  8 Afghanis… AF    AFG    2004
##  9 Afghanis… AF    AFG    2005
## 10 Afghanis… AF    AFG    2006
## # ℹ 76,036 more rows
## # ℹ 4 more variables:
## #   new <chr>, type <chr>,
## #   sexage <chr>, cases <dbl>

Depois podemos deixar de lado a coluna new, porque ela é constante neste conjunto de dados. Enquanto estamos deixando colunas de lado, vamos deixar de lado também iso2e iso3, já que são redundantes.

who3 %>% 
  count(new)

## # A tibble: 1 × 2
##   new       n
##   <chr> <int>
## 1 new   76046

(who4 <- who3 %>%
    select(-new, -iso2, -iso3))

## # A tibble: 76,046 × 5
##    country   year type  sexage
##    <chr>    <dbl> <chr> <chr> 
##  1 Afghani…  1997 sp    m014  
##  2 Afghani…  1998 sp    m014  
##  3 Afghani…  1999 sp    m014  
##  4 Afghani…  2000 sp    m014  
##  5 Afghani…  2001 sp    m014  
##  6 Afghani…  2002 sp    m014  
##  7 Afghani…  2003 sp    m014  
##  8 Afghani…  2004 sp    m014  
##  9 Afghani…  2005 sp    m014  
## 10 Afghani…  2006 sp    m014  
## # ℹ 76,036 more rows
## # ℹ 1 more variable:
## #   cases <dbl>

Em seguida vamos separar sexage em sex e age ao separar depois do primeiro caractere:

(who5 <- who4 %>%
   separate(sexage, c("sex", "age"), sep = 1))

## # A tibble: 76,046 × 6
##    country    year type  sex  
##    <chr>     <dbl> <chr> <chr>
##  1 Afghanis…  1997 sp    m    
##  2 Afghanis…  1998 sp    m    
##  3 Afghanis…  1999 sp    m    
##  4 Afghanis…  2000 sp    m    
##  5 Afghanis…  2001 sp    m    
##  6 Afghanis…  2002 sp    m    
##  7 Afghanis…  2003 sp    m    
##  8 Afghanis…  2004 sp    m    
##  9 Afghanis…  2005 sp    m    
## 10 Afghanis…  2006 sp    m    
## # ℹ 76,036 more rows
## # ℹ 2 more variables:
## #   age <chr>, cases <dbl>
…
who %>%
  gather(
    new_sp_m014:newrel_f65, 
    key = "code",
    value = "cases",
    na.rm = TRUE
  ) %>%
  mutate(
    code = stringr::str_replace(code, "newrel", "new_rel")
  ) %>%
  separate(code, c("new", "type", "sexage")) %>%
  select(-new, -iso2, -iso3) %>%
  separate(sexage, c("sex", "age"), sep = 1)

## # A tibble: 76,046 × 6
##    country    year type  sex  
##    <chr>     <dbl> <chr> <chr>
##  1 Afghanis…  1997 sp    m    
##  2 Afghanis…  1998 sp    m    
##  3 Afghanis…  1999 sp    m    
##  4 Afghanis…  2000 sp    m    
##  5 Afghanis…  2001 sp    m    
##  6 Afghanis…  2002 sp    m    
##  7 Afghanis…  2003 sp    m    
##  8 Afghanis…  2004 sp    m    
##  9 Afghanis…  2005 sp    m    
## 10 Afghanis…  2006 sp    m    
## # ℹ 76,036 more rows
## # ℹ 2 more variables:
## #   age <chr>, cases <dbl>
