Capítulo 9 Arrumando dados com tidyr | R para Data Science
…
who %>%
  gather(
    new_sp_m014:newrel_f65, 
    key = "code",
    value = "cases"
  ) %>%
  mutate(
    code = stringr::str_replace(code, "newrel", "new_rel")
  ) %>%
  separate(code, c("new", "type", "sexage")) %>%
  select(-new, -iso2, -iso3) %>%
  separate(sexage, c("sex", "age"), sep = 1)

## # A tibble: 405,440 × 6
##    country    year type  sex  
##    <chr>     <dbl> <chr> <chr>
##  1 Afghanis…  1980 sp    m    
##  2 Afghanis…  1981 sp    m    
##  3 Afghanis…  1982 sp    m    
##  4 Afghanis…  1983 sp    m    
##  5 Afghanis…  1984 sp    m    
##  6 Afghanis…  1985 sp    m    
##  7 Afghanis…  1986 sp    m    
##  8 Afghanis…  1987 sp    m    
##  9 Afghanis…  1988 sp    m    
## 10 Afghanis…  1989 sp    m    
## # ℹ 405,430 more rows
## # ℹ 2 more variables:
## #   age <chr>, cases <dbl>
…
