Capítulo 10 Dados relacionais com dplyr | R para Data Science
…
Solução. Haveria um novo conjunto de dados chamado, digamos, special_dates, e a chave seria formada pelas variáveis year, month e day

10.3 Chaves (keys)

Exercício 10.3.1

Adicione uma surrogate key para flights.

Solução. 

(flights1 <- flights %>%
  mutate(id = row_number()))

## # A tibble: 336,776 × 20
##     year month   day dep_time
##    <int> <int> <int>    <int>
##  1  2013     1     1      517
##  2  2013     1     1      533
##  3  2013     1     1      542
##  4  2013     1     1      544
##  5  2013     1     1      554
##  6  2013     1     1      554
##  7  2013     1     1      555
##  8  2013     1     1      557
##  9  2013     1     1      557
## 10  2013     1     1      558
## # ℹ 336,766 more rows
## # ℹ 16 more variables:
## #   sched_dep_time <int>,
## #   dep_delay <dbl>,
## #   arr_time <int>,
## #   sched_arr_time <int>, …
…
Solução. 

flights %>%
  group_by(dest, origin) %>%
  summarize(
    delay = mean(arr_delay, na.rm = TRUE)
  ) %>%
  ungroup() %>%
  left_join(airports, by = c("dest" = "faa")) %>%
  left_join(airports, by = c("origin" = "faa"))

## `summarise()` has grouped output by 'dest'. You can override using the
## `.groups` argument.

## # A tibble: 224 × 17
##    dest  origin  delay name.x 
##    <chr> <chr>   <dbl> <chr>  
##  1 ABQ   JFK     4.38  Albuqu…
##  2 ACK   JFK     4.85  Nantuc…
##  3 ALB   EWR    14.4   Albany…
##  4 ANC   EWR    -2.5   Ted St…
##  5 ATL   EWR    13.2   Hartsf…
##  6 ATL   JFK     6.27  Hartsf…
##  7 ATL   LGA    11.3   Hartsf…
##  8 AUS   EWR    -0.474 Austin…
##  9 AUS   JFK    10.3   Austin…
## 10 AVL   EWR     8.80  Ashevi…
## # ℹ 214 more rows
## # ℹ 13 more variables:
## #   lat.x <dbl>, lon.x <dbl>,
## #   alt.x <dbl>, tz.x <dbl>,
## #   …
…
Solução. Vamos iniciar a nossa análise juntando os conjuntos de dados:

(flights_weather <- flights %>%
  inner_join(
    weather, 
    by = c(
      "origin" = "origin",
      "year" = "year",
      "month" = "month",
      "day" = "day",
      "hour" = "hour"
    )
  ))

## # A tibble: 335,220 × 29
##     year month   day dep_time
##    <int> <int> <int>    <int>
##  1  2013     1     1      517
##  2  2013     1     1      533
##  3  2013     1     1      542
##  4  2013     1     1      544
##  5  2013     1     1      554
##  6  2013     1     1      554
##  7  2013     1     1      555
##  8  2013     1     1      557
##  9  2013     1     1      557
## 10  2013     1     1      558
## # ℹ 335,210 more rows
## # ℹ 25 more variables:
## #   sched_dep_time <int>,
## #   dep_delay <dbl>,
## #   arr_time <int>,
## #   sched_arr_time <int>, …
…
10.5 Filtering joins

Exercício 10.5.1

O que significa para um voo ter um tailnum faltante? O que os números de cauda que não têm um registro correspondente em planes têm em comum? (Dica: uma variável explica aproximadamente 90% dos problemas.)

Solução. Primeiro vamos avaliar o caso de tailnum faltante no conjunto flights:

(flights %>%
  filter(is.na(tailnum)))

## # A tibble: 2,512 × 19
##     year month   day dep_time
##    <int> <int> <int>    <int>
##  1  2013     1     2       NA
##  2  2013     1     2       NA
##  3  2013     1     3       NA
##  4  2013     1     3       NA
##  5  2013     1     4       NA
##  6  2013     1     4       NA
##  7  2013     1     5       NA
##  8  2013     1     7       NA
##  9  2013     1     8       NA
## 10  2013     1     9       NA
## # ℹ 2,502 more rows
## # ℹ 15 more variables:
## #   sched_dep_time <int>,
## #   dep_delay <dbl>,
## #   arr_time <int>,
## #   sched_arr_time <int>, …
…
A ausência de registro para os 8,84% restantes não podem ser explicadas a menos que assumamos que se tratam de erro de registro. Por se tratar de um valor muito pequeno em relação ao total de voos (aproximadamente 1,38% do total), entendemos que os mesmos podem ser ignorados.

Exercício 10.5.2

Filtre os voos para exibir apenas aqueles que fizeram pelo menos 100 rotas.

Solução. Em primeiro lugar, precisamos identificar a quantidade de rotas realizadas por cada voo:

(flights_over_100 <- flights %>%
  group_by(tailnum) %>%
  count(sort = TRUE) %>%
  filter(!is.na(tailnum), n >= 100))

## # A tibble: 1,217 × 2
## # Groups:   tailnum [1,217]
##    tailnum     n
##    <chr>   <int>
##  1 N725MQ    575
##  2 N722MQ    513
##  3 N723MQ    507
##  4 N711MQ    486
##  5 N713MQ    483
##  6 N258JB    427
##  7 N298JB    407
##  8 N353JB    404
##  9 N351JB    402
## 10 N735MQ    396
## # ℹ 1,207 more rows

Agora vamos filtrar o total de voos:

flights %>%
  semi_join(flights_over_100, by = "tailnum")

## # A tibble: 228,390 × 19
##     year month   day dep_time
##    <int> <int> <int>    <int>
##  1  2013     1     1      517
##  2  2013     1     1      533
##  3  2013     1     1      544
##  4  2013     1     1      554
##  5  2013     1     1      555
##  6  2013     1     1      557
##  7  2013     1     1      557
##  8  2013     1     1      558
##  9  2013     1     1      558
## 10  2013     1     1      558
## # ℹ 228,380 more rows
## # ℹ 15 more variables:
## #   sched_dep_time <int>,
## #   dep_delay <dbl>,
## #   arr_time <int>,
## #   sched_arr_time <int>, …

Exercício 10.5.3

Combine fueleconomy::vehicles e fueleconomy::common para encontrar apenas os registros para os modelos mais comuns.

Solução. 

vehicles %>%
  semi_join(common, by = c("make", "model"))

## # A tibble: 14,531 × 12
##       id make  model    year
##    <dbl> <chr> <chr>   <dbl>
##  1  1833 Acura Integra  1986
##  2  1834 Acura Integra  1986
##  3  3037 Acura Integra  1987
##  4  3038 Acura Integra  1987
##  5  4183 Acura Integra  1988
##  6  4184 Acura Integra  1988
##  7  5303 Acura Integra  1989
##  8  5304 Acura Integra  1989
##  9  6442 Acura Integra  1990
## 10  6443 Acura Integra  1990
## # ℹ 14,521 more rows
## # ℹ 8 more variables:
## #   class <chr>, trans <chr>,
## #   drive <chr>, cyl <dbl>, …
…
seleciono as 48 piores horas (não contínuas);

(most_delayed <- flights %>%
  mutate(hour = sched_dep_time %/% 100) %>%
  group_by(origin, year, month, day, hour) %>%
  summarise(dep_delay = mean(dep_delay, na.rm = TRUE)) %>%
  ungroup() %>%
  arrange(desc(dep_delay)) %>%
  slice(1:48))

## `summarise()` has grouped output by 'origin', 'year', 'month', 'day'. You can
## override using the `.groups` argument.

## # A tibble: 48 × 6
##    origin  year month   day
##    <chr>  <int> <int> <int>
##  1 LGA     2013     7    28
##  2 EWR     2013     2     9
##  3 EWR     2013     2     9
##  4 LGA     2013     9     2
##  5 LGA     2013     7    22
##  6 LGA     2013     7    28
##  7 JFK     2013     4    10
##  8 LGA     2013     9    12
##  9 EWR     2013     3     8
## 10 LGA     2013    12     5
## # ℹ 38 more rows
## # ℹ 2 more variables:
## #   hour <dbl>,
## #   dep_delay <dbl>

Agora vamos selecionar as condições de tempo nestas horas que selecionamos.

(weather_most_delayed <- weather %>%
  semi_join(most_delayed, by = c("origin", "year", "month", "day", "hour"))) %>%
  select (temp, humid, precip, wind_speed, visib)

## # A tibble: 48 × 5
##     temp humid precip
##    <dbl> <dbl>  <dbl>
##  1  27.0  65.8   0   
##  2  28.0  60.1   0   
##  3  28.9  57.9   0   
##  4  33.8  95.8   0.06
##  5  34.0  96.5   0.05
##  6  80.1  79.2   0   
##  7  86    57.1   0   
##  8  73.4  94.1   0.08
##  9  84.0  69.6   0   
## 10  78.8  93.5   0.23
## # ℹ 38 more rows
## # ℹ 2 more variables:
## #   wind_speed <dbl>,
## #   visib <dbl>
…
Você pode esperar que haja um relacionamento implícito entre avião e linha aérea, visto que cada avião é conduzido por uma única linha aérea. Confirme ou rejeite essa hipótese usando as ferramenas que você aprendeu na seção anterior.

Solução. Não é verdade que uma aeronave é operada apenas por uma única companhia aérea. Temos 17 aeronaves sendo operadas por mais de uma companhia.

flights %>%
  filter(!is.na(tailnum)) %>%
  select(tailnum, carrier) %>%
  distinct() %>%
  group_by(tailnum) %>%
  filter(n() > 1) %>%
  left_join(airlines, by = "carrier") %>%
  arrange(tailnum, carrier)

## # A tibble: 34 × 3
## # Groups:   tailnum [17]
##    tailnum carrier name       
##    <chr>   <chr>   <chr>      
##  1 N146PQ  9E      Endeavor A…
##  2 N146PQ  EV      ExpressJet…
##  3 N153PQ  9E      Endeavor A…
##  4 N153PQ  EV      ExpressJet…
##  5 N176PQ  9E      Endeavor A…
##  6 N176PQ  EV      ExpressJet…
##  7 N181PQ  9E      Endeavor A…
##  8 N181PQ  EV      ExpressJet…
##  9 N197PQ  9E      Endeavor A…
## 10 N197PQ  EV      ExpressJet…
## # ℹ 24 more rows
…
