Capítulo 13 Datas e horas com lubridate | R para Data Science
…
Exercício 13.3.2

Compare dep_time, sched_dep_time e dep_delay. São consistentes? Explique suas descobertas.

Solução. Consideraremos os dados consistentes se eles satisfizerem dep_time = sched_dep_time + dep_delay.

flights_dt %>%
  filter(!is.na(dep_time)) %>%
  mutate(calc_dep_time = sched_dep_time + dep_delay * 60) %>%
  filter(dep_time != calc_dep_time) %>%
  select(dep_time, sched_dep_time, dep_delay, calc_dep_time) %>%
  arrange(desc(dep_delay))

## # A tibble: 1,205 × 4
##    dep_time           
##    <dttm>             
##  1 2013-01-09 06:41:00
##  2 2013-06-15 14:32:00
##  3 2013-01-10 11:21:00
##  4 2013-09-20 11:39:00
##  5 2013-07-22 08:45:00
##  6 2013-04-10 11:00:00
##  7 2013-06-27 09:59:00
##  8 2013-12-05 07:56:00
##  9 2013-05-03 11:33:00
## 10 2013-01-01 08:48:00
## # ℹ 1,195 more rows
## # ℹ 3 more variables:
## #   sched_dep_time <dttm>,
## #   dep_delay <dbl>,
## #   calc_dep_time <dttm>
…
Compare air_time com a duração entre a partida e a chegada. Explique seus resultados. (Dica: considere a localização do aeroporto.)

Solução. Inicialmente vamos calcular a difernça entre a partida e a chegada.

flights_dt %>%
  filter(!is.na(dep_time)) %>%
  mutate(
    calc_dep_time = sched_dep_time + dep_delay * 60,
    flight_duration = arr_time - dep_time,
    diff = flight_duration - air_time
  ) %>%
  select(origin, dest, dep_time, calc_dep_time, arr_time, air_time, flight_duration, diff) %>%
  arrange(diff)

## # A tibble: 328,063 × 8
##    origin dest 
##    <chr>  <chr>
##  1 EWR    HNL  
##  2 EWR    SFO  
##  3 EWR    SFO  
##  4 EWR    PHX  
##  5 EWR    SEA  
##  6 JFK    LAX  
##  7 EWR    SAN  
##  8 JFK    LAS  
##  9 EWR    LAS  
## 10 JFK    PDX  
## # ℹ 328,053 more rows
## # ℹ 6 more variables:
## #   dep_time <dttm>,
## #   calc_dep_time <dttm>,
## #   arr_time <dttm>,
## #   air_time <dbl>, …

Notamos que existem alguns voos para os quais flights_duration é negativa. Esse problema parece estar relacionado à inconsistência apontada no exercício anterior, que ocorre tanto navariável dep_time, quanto na variável arr_time. Vamos tentar resolver o problema ajustando a data de chegada.

flights_dt %>%
  filter(!is.na(dep_time)) %>%
  mutate(
    calc_dep_time = sched_dep_time + dep_delay * 60,
    calc_arr_time = if_else(arr_time <= calc_dep_time, arr_time + (24*60*60), arr_time),
    flight_duration = calc_arr_time - calc_dep_time,
    diff = flight_duration - air_time
  ) %>%
  select(origin, dest, , calc_dep_time, calc_arr_time, air_time, flight_duration, diff) %>%
  arrange(diff)

## # A tibble: 328,063 × 7
##    origin dest 
##    <chr>  <chr>
##  1 JFK    HNL  
##  2 JFK    HNL  
##  3 JFK    HNL  
##  4 EWR    HNL  
##  5 JFK    HNL  
##  6 EWR    HNL  
##  7 EWR    HNL  
##  8 EWR    HNL  
##  9 JFK    HNL  
## 10 EWR    HNL  
## # ℹ 328,053 more rows
## # ℹ 5 more variables:
## #   calc_dep_time <dttm>,
## #   calc_arr_time <dttm>,
## #   air_time <dbl>,
## #   flight_duration <drtn>, …
…
