Capítulo 12 Fatores com forcats | R para Data Science
…
gss_cat %>%
  filter(!denom %in% c("Not applicable", "No answer", "Don't know", "No denomination")) %>%
  count(relig)

## # A tibble: 1 × 2
##   relig          n
##   <fct>      <int>
## 1 Protestant  9559

Uma outra possibilidade é:

gss_cat %>%
  count(relig, denom)

## # A tibble: 47 × 3
##    relig           denom     n
##    <fct>           <fct> <int>
##  1 No answer       No a…    93
##  2 Don't know      Not …    15
##  3 Inter-nondenom… Not …   109
##  4 Native american Not …    23
##  5 Christian       No a…     2
##  6 Christian       Don'…    11
##  7 Christian       No d…   452
##  8 Christian       Not …   224
##  9 Orthodox-chris… Not …    95
## 10 Moslem/islam    Not …   104
## # ℹ 37 more rows
…
