Capítulo 18 O básico de modelos com modelr | R para Data Science
…
Exercício 18.4.2

Use model_matrix() para explorar as equações geradas para os modelos que eu ajustei em sim3 e sim4. Por que * é um bom atalho para cada interação?

Solução. Para começar, vamos gerar as equações para esses doisa datasets:

x3 <- model_matrix(y ~ x1 * x2, data = sim3)
x4 <- model_matrix(y ~ x1 * x2, data = sim4)

Agora vamos visualizar x3, lembrando que o conjunto sim3 contém uma variável categórica e uma contínua:

x3

## # A tibble: 120 × 8
##    `(Intercept)`    x1   x2b
##            <dbl> <dbl> <dbl>
##  1             1     1     0
##  2             1     1     0
##  3             1     1     0
##  4             1     1     1
##  5             1     1     1
##  6             1     1     1
##  7             1     1     0
##  8             1     1     0
##  9             1     1     0
## 10             1     1     0
## # ℹ 110 more rows
## # ℹ 5 more variables:
## #   x2c <dbl>, x2d <dbl>,
## #   `x1:x2b` <dbl>,
## #   `x1:x2c` <dbl>, …
…
## [1] TRUE

all(x3[["x1:x2c"]] == x3[["x1"]] * x3[["x2c"]])

## [1] TRUE

all(x3[["x1:x2d"]] == x3[["x1"]] * x3[["x2d"]])

## [1] TRUE

Agora avaliaremos o caso do conjunto sim4:

x4

## # A tibble: 300 × 4
##    `(Intercept)`    x1     x2
##            <dbl> <dbl>  <dbl>
##  1             1    -1 -1    
##  2             1    -1 -1    
##  3             1    -1 -1    
##  4             1    -1 -0.778
##  5             1    -1 -0.778
##  6             1    -1 -0.778
##  7             1    -1 -0.556
##  8             1    -1 -0.556
##  9             1    -1 -0.556
## 10             1    -1 -0.333
## # ℹ 290 more rows
## # ℹ 1 more variable:
## #   `x1:x2` <dbl>
…
