Capítulo 7 Tibbles com tibble | R para Data Science
…
print(as.tibble(mtcars))

## Warning: `as.tibble()` was deprecated in tibble 2.0.0.
## ℹ Please use `as_tibble()` instead.
## ℹ The signature and semantics have changed, see `?as_tibble`.
## This warning is displayed once every 8 hours.
## Call `lifecycle::last_lifecycle_warnings()` to see where this warning was
## generated.

## # A tibble: 32 × 11
##      mpg   cyl  disp    hp  drat    wt  qsec    vs    am  gear  carb
##    <dbl> <dbl> <dbl> <dbl> <dbl> <dbl> <dbl> <dbl> <dbl> <dbl> <dbl>
##  1  21       6  160    110  3.9   2.62  16.5     0     1     4     4
##  2  21       6  160    110  3.9   2.88  17.0     0     1     4     4
##  3  22.8     4  108     93  3.85  2.32  18.6     1     1     4     1
##  4  21.4     6  258    110  3.08  3.22  19.4     1     0     3     1
##  5  18.7     8  360    175  3.15  3.44  17.0     0     0     3     2
##  6  18.1     6  225    105  2.76  3.46  20.2     1     0     3     1
##  7  14.3     8  360    245  3.21  3.57  15.8     0     0     3     4
##  8  24.4     4  147.    62  3.69  3.19  20       1     0     4     2
##  9  22.8     4  141.    95  3.92  3.15  22.9     1     0     4     2
## 10  19.2     6  168.   123  3.92  3.44  18.3     1     0     4     4
## # ℹ 22 more rows
…
Exercício 7.4.5

O que tibble::enframe() faz? Quando você pode usá-lo?

Solução. Transforma um vetor de valores atômicos ou lista em um tibble de 2 colunas. É útil quando necessitarmos transformar um vetor em um dicionário ou uma lista de pares (nome, valor), por exemplo.

x <- letters
enframe(x)

## # A tibble: 26 × 2
##     name value
##    <int> <chr>
##  1     1 a    
##  2     2 b    
##  3     3 c    
##  4     4 d    
##  5     5 e    
##  6     6 f    
##  7     7 g    
##  8     8 h    
##  9     9 i    
## 10    10 j    
## # ℹ 16 more rows

Exercício 7.4.6

Que opção controla quantos nomes de colunas adicionais são impressos no rodapé de um tibble?

Solução. Pode-se usar a opção tibble.max_extra_cols.

options(tibble.width = 30, tibble.max_extra_cols = 4)
print(as.tibble(mtcars))

## # A tibble: 32 × 11
##      mpg   cyl  disp    hp
##    <dbl> <dbl> <dbl> <dbl>
##  1  21       6  160    110
##  2  21       6  160    110
##  3  22.8     4  108     93
##  4  21.4     6  258    110
##  5  18.7     8  360    175
##  6  18.1     6  225    105
##  7  14.3     8  360    245
##  8  24.4     4  147.    62
##  9  22.8     4  141.    95
## 10  19.2     6  168.   123
## # ℹ 22 more rows
## # ℹ 7 more variables:
## #   drat <dbl>, wt <dbl>,
## #   qsec <dbl>, vs <dbl>, …
